<mxfile host="app.diagrams.net" modified="2024-05-09T11:57:09.917Z" agent="Mozilla/5.0 (Windows NT 10.0; Win64; x64) AppleWebKit/537.36 (KHTML, like Gecko) Chrome/124.0.0.0 Safari/537.36" etag="Bts_EnPkRv7DYXzhGsYb" version="24.3.0" type="device">
  <diagram name="Страница — 1" id="ZOVxTQtW2L-_h57HkyA_">
    <mxGraphModel dx="2482" dy="3971" grid="1" gridSize="10" guides="1" tooltips="1" connect="1" arrows="1" fold="1" page="1" pageScale="1" pageWidth="1169" pageHeight="1654" math="0" shadow="0">
      <root>
        <mxCell id="0" />
        <mxCell id="1" parent="0" />
        <mxCell id="DCnfKMexbWaP9B7KPEEQ-6" value="GameMap" style="swimlane;fontStyle=1;align=center;verticalAlign=top;childLayout=stackLayout;horizontal=1;startSize=26;horizontalStack=0;resizeParent=1;resizeParentMax=0;resizeLast=0;collapsible=1;marginBottom=0;whiteSpace=wrap;html=1;" parent="1" vertex="1">
          <mxGeometry x="480" y="980" width="250" height="250" as="geometry" />
        </mxCell>
        <mxCell id="DCnfKMexbWaP9B7KPEEQ-7" value="+Width: int&lt;div&gt;+Heigh: int&amp;nbsp;&lt;/div&gt;&lt;div&gt;-&amp;lt;&amp;lt;static&amp;gt;&amp;gt;instance: GameMap&lt;/div&gt;&lt;div&gt;+&amp;lt;&amp;lt;sattic property&amp;gt;&amp;gt; Instance:GameMap&lt;/div&gt;" style="text;strokeColor=none;fillColor=none;align=left;verticalAlign=top;spacingLeft=4;spacingRight=4;overflow=hidden;rotatable=0;points=[[0,0.5],[1,0.5]];portConstraint=eastwest;whiteSpace=wrap;html=1;" parent="DCnfKMexbWaP9B7KPEEQ-6" vertex="1">
          <mxGeometry y="26" width="250" height="84" as="geometry" />
        </mxCell>
        <mxCell id="DCnfKMexbWaP9B7KPEEQ-8" value="" style="line;strokeWidth=1;fillColor=none;align=left;verticalAlign=middle;spacingTop=-1;spacingLeft=3;spacingRight=3;rotatable=0;labelPosition=right;points=[];portConstraint=eastwest;strokeColor=inherit;" parent="DCnfKMexbWaP9B7KPEEQ-6" vertex="1">
          <mxGeometry y="110" width="250" height="8" as="geometry" />
        </mxCell>
        <mxCell id="DCnfKMexbWaP9B7KPEEQ-9" value="-&amp;lt;&amp;lt;constructor&amp;gt;&amp;gt; GameMap()&lt;div&gt;+SetMapSize(windowName: string, width: int, height: int): void&lt;/div&gt;&lt;div&gt;+UpdateMap(): void&lt;/div&gt;&lt;div&gt;+ClearMap(): void&lt;/div&gt;&lt;div&gt;+RenderBoats(): void&lt;/div&gt;&lt;div&gt;&lt;br&gt;&lt;div&gt;&lt;br&gt;&lt;/div&gt;&lt;/div&gt;" style="text;strokeColor=none;fillColor=none;align=left;verticalAlign=top;spacingLeft=4;spacingRight=4;overflow=hidden;rotatable=0;points=[[0,0.5],[1,0.5]];portConstraint=eastwest;whiteSpace=wrap;html=1;" parent="DCnfKMexbWaP9B7KPEEQ-6" vertex="1">
          <mxGeometry y="118" width="250" height="132" as="geometry" />
        </mxCell>
        <mxCell id="DCnfKMexbWaP9B7KPEEQ-15" value="&amp;lt;&amp;lt;interface&amp;gt;&amp;gt;&lt;div&gt;IMapElement&lt;/div&gt;" style="swimlane;fontStyle=0;childLayout=stackLayout;horizontal=1;startSize=30;fillColor=none;horizontalStack=0;resizeParent=1;resizeParentMax=0;resizeLast=0;collapsible=1;marginBottom=0;whiteSpace=wrap;html=1;" parent="1" vertex="1">
          <mxGeometry x="520" y="1310" width="180" height="56" as="geometry" />
        </mxCell>
        <mxCell id="DCnfKMexbWaP9B7KPEEQ-16" value="+Clone(): IMapElement" style="text;strokeColor=none;fillColor=none;align=left;verticalAlign=top;spacingLeft=4;spacingRight=4;overflow=hidden;rotatable=0;points=[[0,0.5],[1,0.5]];portConstraint=eastwest;whiteSpace=wrap;html=1;" parent="DCnfKMexbWaP9B7KPEEQ-15" vertex="1">
          <mxGeometry y="30" width="180" height="26" as="geometry" />
        </mxCell>
        <mxCell id="DCnfKMexbWaP9B7KPEEQ-19" value="Treasure" style="swimlane;fontStyle=1;align=center;verticalAlign=top;childLayout=stackLayout;horizontal=1;startSize=26;horizontalStack=0;resizeParent=1;resizeParentMax=0;resizeLast=0;collapsible=1;marginBottom=0;whiteSpace=wrap;html=1;" parent="1" vertex="1">
          <mxGeometry x="360" y="1460" width="220" height="156" as="geometry" />
        </mxCell>
        <mxCell id="DCnfKMexbWaP9B7KPEEQ-20" value="+&amp;lt;&amp;lt;property&amp;gt;&amp;gt;Value: int&lt;div&gt;+&amp;lt;&amp;lt;property&amp;gt;&amp;gt;Description: string&lt;/div&gt;" style="text;strokeColor=none;fillColor=none;align=left;verticalAlign=top;spacingLeft=4;spacingRight=4;overflow=hidden;rotatable=0;points=[[0,0.5],[1,0.5]];portConstraint=eastwest;whiteSpace=wrap;html=1;" parent="DCnfKMexbWaP9B7KPEEQ-19" vertex="1">
          <mxGeometry y="26" width="220" height="54" as="geometry" />
        </mxCell>
        <mxCell id="DCnfKMexbWaP9B7KPEEQ-21" value="" style="line;strokeWidth=1;fillColor=none;align=left;verticalAlign=middle;spacingTop=-1;spacingLeft=3;spacingRight=3;rotatable=0;labelPosition=right;points=[];portConstraint=eastwest;strokeColor=inherit;" parent="DCnfKMexbWaP9B7KPEEQ-19" vertex="1">
          <mxGeometry y="80" width="220" height="8" as="geometry" />
        </mxCell>
        <mxCell id="DCnfKMexbWaP9B7KPEEQ-22" value="+&amp;lt;&amp;lt;constructor&amp;gt;&amp;gt;Treasure(value: int, description: string)&lt;div&gt;+Clone: Treasure(Value, Description)&lt;br&gt;&lt;div&gt;&lt;br&gt;&lt;/div&gt;&lt;/div&gt;" style="text;strokeColor=none;fillColor=none;align=left;verticalAlign=top;spacingLeft=4;spacingRight=4;overflow=hidden;rotatable=0;points=[[0,0.5],[1,0.5]];portConstraint=eastwest;whiteSpace=wrap;html=1;" parent="DCnfKMexbWaP9B7KPEEQ-19" vertex="1">
          <mxGeometry y="88" width="220" height="68" as="geometry" />
        </mxCell>
        <mxCell id="DCnfKMexbWaP9B7KPEEQ-23" value="Obstacle" style="swimlane;fontStyle=1;align=center;verticalAlign=top;childLayout=stackLayout;horizontal=1;startSize=26;horizontalStack=0;resizeParent=1;resizeParentMax=0;resizeLast=0;collapsible=1;marginBottom=0;whiteSpace=wrap;html=1;" parent="1" vertex="1">
          <mxGeometry x="700" y="1460" width="220" height="158" as="geometry" />
        </mxCell>
        <mxCell id="DCnfKMexbWaP9B7KPEEQ-24" value="+&amp;lt;&amp;lt;property&amp;gt;&amp;gt;Size: int&lt;div&gt;+&amp;lt;&amp;lt;property&amp;gt;&amp;gt;Type: string&lt;/div&gt;" style="text;strokeColor=none;fillColor=none;align=left;verticalAlign=top;spacingLeft=4;spacingRight=4;overflow=hidden;rotatable=0;points=[[0,0.5],[1,0.5]];portConstraint=eastwest;whiteSpace=wrap;html=1;" parent="DCnfKMexbWaP9B7KPEEQ-23" vertex="1">
          <mxGeometry y="26" width="220" height="54" as="geometry" />
        </mxCell>
        <mxCell id="DCnfKMexbWaP9B7KPEEQ-25" value="" style="line;strokeWidth=1;fillColor=none;align=left;verticalAlign=middle;spacingTop=-1;spacingLeft=3;spacingRight=3;rotatable=0;labelPosition=right;points=[];portConstraint=eastwest;strokeColor=inherit;" parent="DCnfKMexbWaP9B7KPEEQ-23" vertex="1">
          <mxGeometry y="80" width="220" height="8" as="geometry" />
        </mxCell>
        <mxCell id="DCnfKMexbWaP9B7KPEEQ-26" value="+&amp;lt;&amp;lt;constructor&amp;gt;&amp;gt;Obstacle(size: int, type: string)&lt;div&gt;+Clone: Obstacle(Type, Size)&lt;br&gt;&lt;div&gt;&lt;br&gt;&lt;/div&gt;&lt;/div&gt;" style="text;strokeColor=none;fillColor=none;align=left;verticalAlign=top;spacingLeft=4;spacingRight=4;overflow=hidden;rotatable=0;points=[[0,0.5],[1,0.5]];portConstraint=eastwest;whiteSpace=wrap;html=1;" parent="DCnfKMexbWaP9B7KPEEQ-23" vertex="1">
          <mxGeometry y="88" width="220" height="70" as="geometry" />
        </mxCell>
        <mxCell id="DCnfKMexbWaP9B7KPEEQ-27" value="" style="endArrow=none;html=1;rounded=0;" parent="1" edge="1">
          <mxGeometry width="50" height="50" relative="1" as="geometry">
            <mxPoint x="460" y="1410" as="sourcePoint" />
            <mxPoint x="820" y="1410" as="targetPoint" />
          </mxGeometry>
        </mxCell>
        <mxCell id="DCnfKMexbWaP9B7KPEEQ-28" value="" style="endArrow=none;html=1;rounded=0;exitX=0.46;exitY=-0.01;exitDx=0;exitDy=0;exitPerimeter=0;" parent="1" source="DCnfKMexbWaP9B7KPEEQ-19" edge="1">
          <mxGeometry width="50" height="50" relative="1" as="geometry">
            <mxPoint x="570" y="1420" as="sourcePoint" />
            <mxPoint x="461" y="1410" as="targetPoint" />
          </mxGeometry>
        </mxCell>
        <mxCell id="DCnfKMexbWaP9B7KPEEQ-29" value="" style="endArrow=none;html=1;rounded=0;exitX=0.46;exitY=-0.01;exitDx=0;exitDy=0;exitPerimeter=0;" parent="1" edge="1">
          <mxGeometry width="50" height="50" relative="1" as="geometry">
            <mxPoint x="820" y="1460" as="sourcePoint" />
            <mxPoint x="820" y="1412" as="targetPoint" />
          </mxGeometry>
        </mxCell>
        <mxCell id="DCnfKMexbWaP9B7KPEEQ-30" value="" style="endArrow=block;html=1;rounded=0;entryX=0.487;entryY=1.015;entryDx=0;entryDy=0;entryPerimeter=0;endFill=0;" parent="1" target="DCnfKMexbWaP9B7KPEEQ-16" edge="1">
          <mxGeometry width="50" height="50" relative="1" as="geometry">
            <mxPoint x="608" y="1410" as="sourcePoint" />
            <mxPoint x="620" y="1370" as="targetPoint" />
          </mxGeometry>
        </mxCell>
        <mxCell id="DCnfKMexbWaP9B7KPEEQ-31" value="&amp;lt;&amp;lt;interface&amp;gt;&amp;gt;&lt;div&gt;IShipFactory&lt;/div&gt;" style="swimlane;fontStyle=0;childLayout=stackLayout;horizontal=1;startSize=30;fillColor=none;horizontalStack=0;resizeParent=1;resizeParentMax=0;resizeLast=0;collapsible=1;marginBottom=0;whiteSpace=wrap;html=1;" parent="1" vertex="1">
          <mxGeometry x="910" y="360" width="180" height="110" as="geometry" />
        </mxCell>
        <mxCell id="DCnfKMexbWaP9B7KPEEQ-32" value="+CreateBoat(): IBoat&lt;div&gt;+CreateCrew():&amp;nbsp; ICrew&lt;/div&gt;&lt;div&gt;+CreateWeapon(): IWeapon&lt;/div&gt;&lt;div&gt;+CreateSupplies():&amp;nbsp;ISupplies&lt;/div&gt;" style="text;strokeColor=none;fillColor=none;align=left;verticalAlign=top;spacingLeft=4;spacingRight=4;overflow=hidden;rotatable=0;points=[[0,0.5],[1,0.5]];portConstraint=eastwest;whiteSpace=wrap;html=1;" parent="DCnfKMexbWaP9B7KPEEQ-31" vertex="1">
          <mxGeometry y="30" width="180" height="80" as="geometry" />
        </mxCell>
        <mxCell id="DCnfKMexbWaP9B7KPEEQ-33" value="Frigate" style="swimlane;fontStyle=1;align=center;verticalAlign=top;childLayout=stackLayout;horizontal=1;startSize=26;horizontalStack=0;resizeParent=1;resizeParentMax=0;resizeLast=0;collapsible=1;marginBottom=0;whiteSpace=wrap;html=1;" parent="1" vertex="1">
          <mxGeometry x="890" y="170" width="220" height="130" as="geometry" />
        </mxCell>
        <mxCell id="DCnfKMexbWaP9B7KPEEQ-35" value="" style="line;strokeWidth=1;fillColor=none;align=left;verticalAlign=middle;spacingTop=-1;spacingLeft=3;spacingRight=3;rotatable=0;labelPosition=right;points=[];portConstraint=eastwest;strokeColor=inherit;" parent="DCnfKMexbWaP9B7KPEEQ-33" vertex="1">
          <mxGeometry y="26" width="220" height="34" as="geometry" />
        </mxCell>
        <mxCell id="DCnfKMexbWaP9B7KPEEQ-36" value="&lt;div&gt;&lt;div&gt;+CreateBoat(): FrigateBoat&lt;div style=&quot;border-color: var(--border-color);&quot;&gt;+CreateCrew():&amp;nbsp; FigateCrew&lt;/div&gt;&lt;div style=&quot;border-color: var(--border-color);&quot;&gt;+CreateWeapon(): FigateWeapon&lt;/div&gt;&lt;div style=&quot;border-color: var(--border-color);&quot;&gt;+CreateSupplies():&amp;nbsp;FigateSupplies&lt;/div&gt;&lt;/div&gt;&lt;/div&gt;" style="text;strokeColor=none;fillColor=none;align=left;verticalAlign=top;spacingLeft=4;spacingRight=4;overflow=hidden;rotatable=0;points=[[0,0.5],[1,0.5]];portConstraint=eastwest;whiteSpace=wrap;html=1;" parent="DCnfKMexbWaP9B7KPEEQ-33" vertex="1">
          <mxGeometry y="60" width="220" height="70" as="geometry" />
        </mxCell>
        <mxCell id="DCnfKMexbWaP9B7KPEEQ-37" value="Galleon" style="swimlane;fontStyle=1;align=center;verticalAlign=top;childLayout=stackLayout;horizontal=1;startSize=26;horizontalStack=0;resizeParent=1;resizeParentMax=0;resizeLast=0;collapsible=1;marginBottom=0;whiteSpace=wrap;html=1;" parent="1" vertex="1">
          <mxGeometry x="890" y="530" width="220" height="130" as="geometry" />
        </mxCell>
        <mxCell id="DCnfKMexbWaP9B7KPEEQ-38" value="" style="line;strokeWidth=1;fillColor=none;align=left;verticalAlign=middle;spacingTop=-1;spacingLeft=3;spacingRight=3;rotatable=0;labelPosition=right;points=[];portConstraint=eastwest;strokeColor=inherit;" parent="DCnfKMexbWaP9B7KPEEQ-37" vertex="1">
          <mxGeometry y="26" width="220" height="34" as="geometry" />
        </mxCell>
        <mxCell id="DCnfKMexbWaP9B7KPEEQ-39" value="&lt;div&gt;&lt;div&gt;+CreateBoat(): GalleonBoat&lt;div style=&quot;border-color: var(--border-color);&quot;&gt;+CreateCrew():&amp;nbsp;&amp;nbsp;&lt;span style=&quot;background-color: initial;&quot;&gt;GalleonCrew&lt;/span&gt;&lt;/div&gt;&lt;div style=&quot;border-color: var(--border-color);&quot;&gt;+CreateWeapon(): GalleonWeapon&lt;/div&gt;&lt;div style=&quot;border-color: var(--border-color);&quot;&gt;+CreateSupplies():&amp;nbsp;GalleonSupplies&lt;/div&gt;&lt;/div&gt;&lt;/div&gt;" style="text;strokeColor=none;fillColor=none;align=left;verticalAlign=top;spacingLeft=4;spacingRight=4;overflow=hidden;rotatable=0;points=[[0,0.5],[1,0.5]];portConstraint=eastwest;whiteSpace=wrap;html=1;" parent="DCnfKMexbWaP9B7KPEEQ-37" vertex="1">
          <mxGeometry y="60" width="220" height="70" as="geometry" />
        </mxCell>
        <mxCell id="DCnfKMexbWaP9B7KPEEQ-44" value="" style="endArrow=block;html=1;rounded=0;entryX=0.5;entryY=0;entryDx=0;entryDy=0;endFill=0;dashed=1;" parent="1" target="DCnfKMexbWaP9B7KPEEQ-31" edge="1">
          <mxGeometry width="50" height="50" relative="1" as="geometry">
            <mxPoint x="1000" y="300" as="sourcePoint" />
            <mxPoint x="840" y="340" as="targetPoint" />
          </mxGeometry>
        </mxCell>
        <mxCell id="DCnfKMexbWaP9B7KPEEQ-45" value="&amp;lt;&amp;lt;interface&amp;gt;&amp;gt;&lt;div&gt;IBoat&lt;/div&gt;" style="swimlane;fontStyle=0;childLayout=stackLayout;horizontal=1;startSize=30;fillColor=none;horizontalStack=0;resizeParent=1;resizeParentMax=0;resizeLast=0;collapsible=1;marginBottom=0;whiteSpace=wrap;html=1;" parent="1" vertex="1">
          <mxGeometry x="160" y="-240" width="180" height="80" as="geometry" />
        </mxCell>
        <mxCell id="DCnfKMexbWaP9B7KPEEQ-46" value="+Sale(): void&lt;div&gt;+Navigate(): void&lt;/div&gt;" style="text;strokeColor=none;fillColor=none;align=left;verticalAlign=top;spacingLeft=4;spacingRight=4;overflow=hidden;rotatable=0;points=[[0,0.5],[1,0.5]];portConstraint=eastwest;whiteSpace=wrap;html=1;" parent="DCnfKMexbWaP9B7KPEEQ-45" vertex="1">
          <mxGeometry y="30" width="180" height="50" as="geometry" />
        </mxCell>
        <mxCell id="DCnfKMexbWaP9B7KPEEQ-47" value="&amp;lt;&amp;lt;interface&amp;gt;&amp;gt;&lt;div&gt;ICrew&lt;/div&gt;" style="swimlane;fontStyle=0;childLayout=stackLayout;horizontal=1;startSize=30;fillColor=none;horizontalStack=0;resizeParent=1;resizeParentMax=0;resizeLast=0;collapsible=1;marginBottom=0;whiteSpace=wrap;html=1;" parent="1" vertex="1">
          <mxGeometry x="400" y="-240" width="180" height="90" as="geometry" />
        </mxCell>
        <mxCell id="DCnfKMexbWaP9B7KPEEQ-48" value="+AssignRole(): void&lt;div&gt;+AddCrewMember(): void&lt;/div&gt;&lt;div&gt;+RemoveCrewMember(): void&lt;/div&gt;" style="text;strokeColor=none;fillColor=none;align=left;verticalAlign=top;spacingLeft=4;spacingRight=4;overflow=hidden;rotatable=0;points=[[0,0.5],[1,0.5]];portConstraint=eastwest;whiteSpace=wrap;html=1;" parent="DCnfKMexbWaP9B7KPEEQ-47" vertex="1">
          <mxGeometry y="30" width="180" height="60" as="geometry" />
        </mxCell>
        <mxCell id="DCnfKMexbWaP9B7KPEEQ-49" value="&amp;lt;&amp;lt;interface&amp;gt;&amp;gt;&lt;div&gt;IWeapon&lt;/div&gt;" style="swimlane;fontStyle=0;childLayout=stackLayout;horizontal=1;startSize=30;fillColor=none;horizontalStack=0;resizeParent=1;resizeParentMax=0;resizeLast=0;collapsible=1;marginBottom=0;whiteSpace=wrap;html=1;" parent="1" vertex="1">
          <mxGeometry x="690" y="-230" width="180" height="80" as="geometry" />
        </mxCell>
        <mxCell id="DCnfKMexbWaP9B7KPEEQ-50" value="+Fire(): void&lt;div&gt;+Reload(): void&lt;/div&gt;" style="text;strokeColor=none;fillColor=none;align=left;verticalAlign=top;spacingLeft=4;spacingRight=4;overflow=hidden;rotatable=0;points=[[0,0.5],[1,0.5]];portConstraint=eastwest;whiteSpace=wrap;html=1;" parent="DCnfKMexbWaP9B7KPEEQ-49" vertex="1">
          <mxGeometry y="30" width="180" height="50" as="geometry" />
        </mxCell>
        <mxCell id="DCnfKMexbWaP9B7KPEEQ-51" value="&amp;lt;&amp;lt;interface&amp;gt;&amp;gt;&lt;div&gt;ISupplies&lt;br&gt;&lt;/div&gt;" style="swimlane;fontStyle=0;childLayout=stackLayout;horizontal=1;startSize=30;fillColor=none;horizontalStack=0;resizeParent=1;resizeParentMax=0;resizeLast=0;collapsible=1;marginBottom=0;whiteSpace=wrap;html=1;" parent="1" vertex="1">
          <mxGeometry x="920" y="-230" width="180" height="90" as="geometry" />
        </mxCell>
        <mxCell id="DCnfKMexbWaP9B7KPEEQ-52" value="+ConsumeSupply(): void&lt;div&gt;+AddSupply(): void&lt;/div&gt;&lt;div&gt;+CheckSupplyLevel(): int&lt;/div&gt;" style="text;strokeColor=none;fillColor=none;align=left;verticalAlign=top;spacingLeft=4;spacingRight=4;overflow=hidden;rotatable=0;points=[[0,0.5],[1,0.5]];portConstraint=eastwest;whiteSpace=wrap;html=1;" parent="DCnfKMexbWaP9B7KPEEQ-51" vertex="1">
          <mxGeometry y="30" width="180" height="60" as="geometry" />
        </mxCell>
        <mxCell id="DCnfKMexbWaP9B7KPEEQ-56" value="FrigateBoat" style="swimlane;fontStyle=1;align=center;verticalAlign=top;childLayout=stackLayout;horizontal=1;startSize=26;horizontalStack=0;resizeParent=1;resizeParentMax=0;resizeLast=0;collapsible=1;marginBottom=0;whiteSpace=wrap;html=1;" parent="1" vertex="1">
          <mxGeometry x="130" y="-430" width="160" height="110" as="geometry" />
        </mxCell>
        <mxCell id="DCnfKMexbWaP9B7KPEEQ-57" value="" style="line;strokeWidth=1;fillColor=none;align=left;verticalAlign=middle;spacingTop=-1;spacingLeft=3;spacingRight=3;rotatable=0;labelPosition=right;points=[];portConstraint=eastwest;strokeColor=inherit;" parent="DCnfKMexbWaP9B7KPEEQ-56" vertex="1">
          <mxGeometry y="26" width="160" height="34" as="geometry" />
        </mxCell>
        <mxCell id="DCnfKMexbWaP9B7KPEEQ-58" value="+Sale(): void&lt;div style=&quot;border-color: var(--border-color);&quot;&gt;+Navigate(): void&lt;/div&gt;" style="text;strokeColor=none;fillColor=none;align=left;verticalAlign=top;spacingLeft=4;spacingRight=4;overflow=hidden;rotatable=0;points=[[0,0.5],[1,0.5]];portConstraint=eastwest;whiteSpace=wrap;html=1;" parent="DCnfKMexbWaP9B7KPEEQ-56" vertex="1">
          <mxGeometry y="60" width="160" height="50" as="geometry" />
        </mxCell>
        <mxCell id="DCnfKMexbWaP9B7KPEEQ-59" value="FrigateCrew" style="swimlane;fontStyle=1;align=center;verticalAlign=top;childLayout=stackLayout;horizontal=1;startSize=26;horizontalStack=0;resizeParent=1;resizeParentMax=0;resizeLast=0;collapsible=1;marginBottom=0;whiteSpace=wrap;html=1;" parent="1" vertex="1">
          <mxGeometry x="400" y="-430" width="180" height="110" as="geometry" />
        </mxCell>
        <mxCell id="DCnfKMexbWaP9B7KPEEQ-60" value="" style="line;strokeWidth=1;fillColor=none;align=left;verticalAlign=middle;spacingTop=-1;spacingLeft=3;spacingRight=3;rotatable=0;labelPosition=right;points=[];portConstraint=eastwest;strokeColor=inherit;" parent="DCnfKMexbWaP9B7KPEEQ-59" vertex="1">
          <mxGeometry y="26" width="180" height="34" as="geometry" />
        </mxCell>
        <mxCell id="DCnfKMexbWaP9B7KPEEQ-61" value="+AssignRole(): void&lt;div style=&quot;border-color: var(--border-color);&quot;&gt;+AddCrewMember(): void&lt;/div&gt;&lt;div style=&quot;border-color: var(--border-color);&quot;&gt;+RemoveCrewMember(): void&lt;/div&gt;" style="text;strokeColor=none;fillColor=none;align=left;verticalAlign=top;spacingLeft=4;spacingRight=4;overflow=hidden;rotatable=0;points=[[0,0.5],[1,0.5]];portConstraint=eastwest;whiteSpace=wrap;html=1;" parent="DCnfKMexbWaP9B7KPEEQ-59" vertex="1">
          <mxGeometry y="60" width="180" height="50" as="geometry" />
        </mxCell>
        <mxCell id="DCnfKMexbWaP9B7KPEEQ-62" value="FrigateWeapon" style="swimlane;fontStyle=1;align=center;verticalAlign=top;childLayout=stackLayout;horizontal=1;startSize=26;horizontalStack=0;resizeParent=1;resizeParentMax=0;resizeLast=0;collapsible=1;marginBottom=0;whiteSpace=wrap;html=1;" parent="1" vertex="1">
          <mxGeometry x="700" y="-420" width="160" height="110" as="geometry" />
        </mxCell>
        <mxCell id="DCnfKMexbWaP9B7KPEEQ-63" value="" style="line;strokeWidth=1;fillColor=none;align=left;verticalAlign=middle;spacingTop=-1;spacingLeft=3;spacingRight=3;rotatable=0;labelPosition=right;points=[];portConstraint=eastwest;strokeColor=inherit;" parent="DCnfKMexbWaP9B7KPEEQ-62" vertex="1">
          <mxGeometry y="26" width="160" height="34" as="geometry" />
        </mxCell>
        <mxCell id="DCnfKMexbWaP9B7KPEEQ-64" value="+Fire(): void&lt;div style=&quot;border-color: var(--border-color);&quot;&gt;+Reload(): void&lt;/div&gt;" style="text;strokeColor=none;fillColor=none;align=left;verticalAlign=top;spacingLeft=4;spacingRight=4;overflow=hidden;rotatable=0;points=[[0,0.5],[1,0.5]];portConstraint=eastwest;whiteSpace=wrap;html=1;" parent="DCnfKMexbWaP9B7KPEEQ-62" vertex="1">
          <mxGeometry y="60" width="160" height="50" as="geometry" />
        </mxCell>
        <mxCell id="DCnfKMexbWaP9B7KPEEQ-65" value="FrigateSupplies" style="swimlane;fontStyle=1;align=center;verticalAlign=top;childLayout=stackLayout;horizontal=1;startSize=26;horizontalStack=0;resizeParent=1;resizeParentMax=0;resizeLast=0;collapsible=1;marginBottom=0;whiteSpace=wrap;html=1;" parent="1" vertex="1">
          <mxGeometry x="930" y="-420" width="160" height="110" as="geometry" />
        </mxCell>
        <mxCell id="DCnfKMexbWaP9B7KPEEQ-66" value="" style="line;strokeWidth=1;fillColor=none;align=left;verticalAlign=middle;spacingTop=-1;spacingLeft=3;spacingRight=3;rotatable=0;labelPosition=right;points=[];portConstraint=eastwest;strokeColor=inherit;" parent="DCnfKMexbWaP9B7KPEEQ-65" vertex="1">
          <mxGeometry y="26" width="160" height="34" as="geometry" />
        </mxCell>
        <mxCell id="DCnfKMexbWaP9B7KPEEQ-67" value="+ConsumeSupply(): void&lt;div style=&quot;border-color: var(--border-color);&quot;&gt;+AddSupply(): void&lt;/div&gt;&lt;div style=&quot;border-color: var(--border-color);&quot;&gt;+CheckSupplyLevel(): int&lt;/div&gt;" style="text;strokeColor=none;fillColor=none;align=left;verticalAlign=top;spacingLeft=4;spacingRight=4;overflow=hidden;rotatable=0;points=[[0,0.5],[1,0.5]];portConstraint=eastwest;whiteSpace=wrap;html=1;" parent="DCnfKMexbWaP9B7KPEEQ-65" vertex="1">
          <mxGeometry y="60" width="160" height="50" as="geometry" />
        </mxCell>
        <mxCell id="DCnfKMexbWaP9B7KPEEQ-68" value="" style="endArrow=block;html=1;rounded=0;endFill=0;entryX=0.394;entryY=-0.037;entryDx=0;entryDy=0;entryPerimeter=0;" parent="1" target="DCnfKMexbWaP9B7KPEEQ-45" edge="1">
          <mxGeometry width="50" height="50" relative="1" as="geometry">
            <mxPoint x="210" y="-320" as="sourcePoint" />
            <mxPoint x="372" y="-330" as="targetPoint" />
          </mxGeometry>
        </mxCell>
        <mxCell id="DCnfKMexbWaP9B7KPEEQ-69" value="" style="endArrow=block;html=1;rounded=0;endFill=0;entryX=0.456;entryY=0;entryDx=0;entryDy=0;entryPerimeter=0;" parent="1" target="DCnfKMexbWaP9B7KPEEQ-47" edge="1">
          <mxGeometry width="50" height="50" relative="1" as="geometry">
            <mxPoint x="479.5" y="-320" as="sourcePoint" />
            <mxPoint x="500.5" y="-243" as="targetPoint" />
          </mxGeometry>
        </mxCell>
        <mxCell id="DCnfKMexbWaP9B7KPEEQ-70" value="" style="endArrow=block;html=1;rounded=0;endFill=0;entryX=0.456;entryY=0;entryDx=0;entryDy=0;entryPerimeter=0;" parent="1" edge="1">
          <mxGeometry width="50" height="50" relative="1" as="geometry">
            <mxPoint x="778.75" y="-310" as="sourcePoint" />
            <mxPoint x="781.25" y="-230" as="targetPoint" />
          </mxGeometry>
        </mxCell>
        <mxCell id="DCnfKMexbWaP9B7KPEEQ-71" value="" style="endArrow=block;html=1;rounded=0;endFill=0;entryX=0.456;entryY=0;entryDx=0;entryDy=0;entryPerimeter=0;" parent="1" edge="1">
          <mxGeometry width="50" height="50" relative="1" as="geometry">
            <mxPoint x="1008.75" y="-310" as="sourcePoint" />
            <mxPoint x="1011.25" y="-230" as="targetPoint" />
          </mxGeometry>
        </mxCell>
        <mxCell id="DCnfKMexbWaP9B7KPEEQ-72" value="FrigateBoat" style="swimlane;fontStyle=1;align=center;verticalAlign=top;childLayout=stackLayout;horizontal=1;startSize=26;horizontalStack=0;resizeParent=1;resizeParentMax=0;resizeLast=0;collapsible=1;marginBottom=0;whiteSpace=wrap;html=1;" parent="1" vertex="1">
          <mxGeometry x="655" y="170" width="160" height="110" as="geometry" />
        </mxCell>
        <mxCell id="DCnfKMexbWaP9B7KPEEQ-73" value="" style="line;strokeWidth=1;fillColor=none;align=left;verticalAlign=middle;spacingTop=-1;spacingLeft=3;spacingRight=3;rotatable=0;labelPosition=right;points=[];portConstraint=eastwest;strokeColor=inherit;" parent="DCnfKMexbWaP9B7KPEEQ-72" vertex="1">
          <mxGeometry y="26" width="160" height="34" as="geometry" />
        </mxCell>
        <mxCell id="DCnfKMexbWaP9B7KPEEQ-74" value="+Sail(): void&lt;div style=&quot;border-color: var(--border-color);&quot;&gt;+Navigate(): void&lt;/div&gt;" style="text;strokeColor=none;fillColor=none;align=left;verticalAlign=top;spacingLeft=4;spacingRight=4;overflow=hidden;rotatable=0;points=[[0,0.5],[1,0.5]];portConstraint=eastwest;whiteSpace=wrap;html=1;" parent="DCnfKMexbWaP9B7KPEEQ-72" vertex="1">
          <mxGeometry y="60" width="160" height="50" as="geometry" />
        </mxCell>
        <mxCell id="DCnfKMexbWaP9B7KPEEQ-78" value="FrigateCrew" style="swimlane;fontStyle=1;align=center;verticalAlign=top;childLayout=stackLayout;horizontal=1;startSize=26;horizontalStack=0;resizeParent=1;resizeParentMax=0;resizeLast=0;collapsible=1;marginBottom=0;whiteSpace=wrap;html=1;" parent="1" vertex="1">
          <mxGeometry x="440" y="170" width="180" height="110" as="geometry" />
        </mxCell>
        <mxCell id="DCnfKMexbWaP9B7KPEEQ-79" value="" style="line;strokeWidth=1;fillColor=none;align=left;verticalAlign=middle;spacingTop=-1;spacingLeft=3;spacingRight=3;rotatable=0;labelPosition=right;points=[];portConstraint=eastwest;strokeColor=inherit;" parent="DCnfKMexbWaP9B7KPEEQ-78" vertex="1">
          <mxGeometry y="26" width="180" height="34" as="geometry" />
        </mxCell>
        <mxCell id="DCnfKMexbWaP9B7KPEEQ-80" value="+AssignRole(): void&lt;div style=&quot;border-color: var(--border-color);&quot;&gt;+AddCrewMember(): void&lt;/div&gt;&lt;div style=&quot;border-color: var(--border-color);&quot;&gt;+RemoveCrewMember(): void&lt;/div&gt;" style="text;strokeColor=none;fillColor=none;align=left;verticalAlign=top;spacingLeft=4;spacingRight=4;overflow=hidden;rotatable=0;points=[[0,0.5],[1,0.5]];portConstraint=eastwest;whiteSpace=wrap;html=1;" parent="DCnfKMexbWaP9B7KPEEQ-78" vertex="1">
          <mxGeometry y="60" width="180" height="50" as="geometry" />
        </mxCell>
        <mxCell id="DCnfKMexbWaP9B7KPEEQ-81" value="FrigateWeapon" style="swimlane;fontStyle=1;align=center;verticalAlign=top;childLayout=stackLayout;horizontal=1;startSize=26;horizontalStack=0;resizeParent=1;resizeParentMax=0;resizeLast=0;collapsible=1;marginBottom=0;whiteSpace=wrap;html=1;" parent="1" vertex="1">
          <mxGeometry x="250" y="170" width="160" height="110" as="geometry" />
        </mxCell>
        <mxCell id="DCnfKMexbWaP9B7KPEEQ-82" value="" style="line;strokeWidth=1;fillColor=none;align=left;verticalAlign=middle;spacingTop=-1;spacingLeft=3;spacingRight=3;rotatable=0;labelPosition=right;points=[];portConstraint=eastwest;strokeColor=inherit;" parent="DCnfKMexbWaP9B7KPEEQ-81" vertex="1">
          <mxGeometry y="26" width="160" height="34" as="geometry" />
        </mxCell>
        <mxCell id="DCnfKMexbWaP9B7KPEEQ-83" value="+Fire(): void&lt;div style=&quot;border-color: var(--border-color);&quot;&gt;+Reload(): void&lt;/div&gt;" style="text;strokeColor=none;fillColor=none;align=left;verticalAlign=top;spacingLeft=4;spacingRight=4;overflow=hidden;rotatable=0;points=[[0,0.5],[1,0.5]];portConstraint=eastwest;whiteSpace=wrap;html=1;" parent="DCnfKMexbWaP9B7KPEEQ-81" vertex="1">
          <mxGeometry y="60" width="160" height="50" as="geometry" />
        </mxCell>
        <mxCell id="DCnfKMexbWaP9B7KPEEQ-84" value="FrigateSupplies" style="swimlane;fontStyle=1;align=center;verticalAlign=top;childLayout=stackLayout;horizontal=1;startSize=26;horizontalStack=0;resizeParent=1;resizeParentMax=0;resizeLast=0;collapsible=1;marginBottom=0;whiteSpace=wrap;html=1;" parent="1" vertex="1">
          <mxGeometry x="30" y="170" width="160" height="110" as="geometry" />
        </mxCell>
        <mxCell id="DCnfKMexbWaP9B7KPEEQ-85" value="" style="line;strokeWidth=1;fillColor=none;align=left;verticalAlign=middle;spacingTop=-1;spacingLeft=3;spacingRight=3;rotatable=0;labelPosition=right;points=[];portConstraint=eastwest;strokeColor=inherit;" parent="DCnfKMexbWaP9B7KPEEQ-84" vertex="1">
          <mxGeometry y="26" width="160" height="34" as="geometry" />
        </mxCell>
        <mxCell id="DCnfKMexbWaP9B7KPEEQ-86" value="+ConsumeSupply(): void&lt;div style=&quot;border-color: var(--border-color);&quot;&gt;+AddSupply(): void&lt;/div&gt;&lt;div style=&quot;border-color: var(--border-color);&quot;&gt;+CheckSupplyLevel(): int&lt;/div&gt;" style="text;strokeColor=none;fillColor=none;align=left;verticalAlign=top;spacingLeft=4;spacingRight=4;overflow=hidden;rotatable=0;points=[[0,0.5],[1,0.5]];portConstraint=eastwest;whiteSpace=wrap;html=1;" parent="DCnfKMexbWaP9B7KPEEQ-84" vertex="1">
          <mxGeometry y="60" width="160" height="50" as="geometry" />
        </mxCell>
        <mxCell id="DCnfKMexbWaP9B7KPEEQ-90" value="" style="endArrow=block;html=1;rounded=0;exitX=0.5;exitY=0;exitDx=0;exitDy=0;dashed=1;endFill=0;" parent="1" source="DCnfKMexbWaP9B7KPEEQ-37" edge="1">
          <mxGeometry width="50" height="50" relative="1" as="geometry">
            <mxPoint x="1150" y="430" as="sourcePoint" />
            <mxPoint x="1000" y="470" as="targetPoint" />
          </mxGeometry>
        </mxCell>
        <mxCell id="DCnfKMexbWaP9B7KPEEQ-91" value="&amp;lt;&amp;lt;interface&amp;gt;&amp;gt;&lt;div&gt;IBoat&lt;/div&gt;" style="swimlane;fontStyle=0;childLayout=stackLayout;horizontal=1;startSize=30;fillColor=none;horizontalStack=0;resizeParent=1;resizeParentMax=0;resizeLast=0;collapsible=1;marginBottom=0;whiteSpace=wrap;html=1;" parent="1" vertex="1">
          <mxGeometry x="660" y="375" width="150" height="80" as="geometry" />
        </mxCell>
        <mxCell id="DCnfKMexbWaP9B7KPEEQ-92" value="+Sail(): void&lt;div&gt;+Navigate(): void&lt;/div&gt;" style="text;strokeColor=none;fillColor=none;align=left;verticalAlign=top;spacingLeft=4;spacingRight=4;overflow=hidden;rotatable=0;points=[[0,0.5],[1,0.5]];portConstraint=eastwest;whiteSpace=wrap;html=1;" parent="DCnfKMexbWaP9B7KPEEQ-91" vertex="1">
          <mxGeometry y="30" width="150" height="50" as="geometry" />
        </mxCell>
        <mxCell id="DCnfKMexbWaP9B7KPEEQ-93" value="&amp;lt;&amp;lt;interface&amp;gt;&amp;gt;&lt;div&gt;ICrew&lt;/div&gt;" style="swimlane;fontStyle=0;childLayout=stackLayout;horizontal=1;startSize=30;fillColor=none;horizontalStack=0;resizeParent=1;resizeParentMax=0;resizeLast=0;collapsible=1;marginBottom=0;whiteSpace=wrap;html=1;" parent="1" vertex="1">
          <mxGeometry x="450" y="370" width="180" height="90" as="geometry" />
        </mxCell>
        <mxCell id="DCnfKMexbWaP9B7KPEEQ-94" value="+AssignRole(): void&lt;div&gt;+AddCrewMember(): void&lt;/div&gt;&lt;div&gt;+RemoveCrewMember(): void&lt;/div&gt;" style="text;strokeColor=none;fillColor=none;align=left;verticalAlign=top;spacingLeft=4;spacingRight=4;overflow=hidden;rotatable=0;points=[[0,0.5],[1,0.5]];portConstraint=eastwest;whiteSpace=wrap;html=1;" parent="DCnfKMexbWaP9B7KPEEQ-93" vertex="1">
          <mxGeometry y="30" width="180" height="60" as="geometry" />
        </mxCell>
        <mxCell id="DCnfKMexbWaP9B7KPEEQ-95" value="&amp;lt;&amp;lt;interface&amp;gt;&amp;gt;&lt;div&gt;IWeapon&lt;/div&gt;" style="swimlane;fontStyle=0;childLayout=stackLayout;horizontal=1;startSize=30;fillColor=none;horizontalStack=0;resizeParent=1;resizeParentMax=0;resizeLast=0;collapsible=1;marginBottom=0;whiteSpace=wrap;html=1;" parent="1" vertex="1">
          <mxGeometry x="230" y="375" width="180" height="80" as="geometry" />
        </mxCell>
        <mxCell id="DCnfKMexbWaP9B7KPEEQ-96" value="+Fire(): void&lt;div&gt;+Reload(): void&lt;/div&gt;" style="text;strokeColor=none;fillColor=none;align=left;verticalAlign=top;spacingLeft=4;spacingRight=4;overflow=hidden;rotatable=0;points=[[0,0.5],[1,0.5]];portConstraint=eastwest;whiteSpace=wrap;html=1;" parent="DCnfKMexbWaP9B7KPEEQ-95" vertex="1">
          <mxGeometry y="30" width="180" height="50" as="geometry" />
        </mxCell>
        <mxCell id="DCnfKMexbWaP9B7KPEEQ-97" value="&amp;lt;&amp;lt;interface&amp;gt;&amp;gt;&lt;div&gt;ISupplies&lt;br&gt;&lt;/div&gt;" style="swimlane;fontStyle=0;childLayout=stackLayout;horizontal=1;startSize=30;fillColor=none;horizontalStack=0;resizeParent=1;resizeParentMax=0;resizeLast=0;collapsible=1;marginBottom=0;whiteSpace=wrap;html=1;" parent="1" vertex="1">
          <mxGeometry x="10" y="370" width="180" height="90" as="geometry" />
        </mxCell>
        <mxCell id="DCnfKMexbWaP9B7KPEEQ-98" value="+ConsumeSupply(): void&lt;div&gt;+AddSupply(): void&lt;/div&gt;&lt;div&gt;+CheckSupplyLevel(): int&lt;/div&gt;" style="text;strokeColor=none;fillColor=none;align=left;verticalAlign=top;spacingLeft=4;spacingRight=4;overflow=hidden;rotatable=0;points=[[0,0.5],[1,0.5]];portConstraint=eastwest;whiteSpace=wrap;html=1;" parent="DCnfKMexbWaP9B7KPEEQ-97" vertex="1">
          <mxGeometry y="30" width="180" height="60" as="geometry" />
        </mxCell>
        <mxCell id="DCnfKMexbWaP9B7KPEEQ-99" value="GalleonBoat" style="swimlane;fontStyle=1;align=center;verticalAlign=top;childLayout=stackLayout;horizontal=1;startSize=26;horizontalStack=0;resizeParent=1;resizeParentMax=0;resizeLast=0;collapsible=1;marginBottom=0;whiteSpace=wrap;html=1;" parent="1" vertex="1">
          <mxGeometry x="655" y="540" width="160" height="110" as="geometry" />
        </mxCell>
        <mxCell id="DCnfKMexbWaP9B7KPEEQ-100" value="" style="line;strokeWidth=1;fillColor=none;align=left;verticalAlign=middle;spacingTop=-1;spacingLeft=3;spacingRight=3;rotatable=0;labelPosition=right;points=[];portConstraint=eastwest;strokeColor=inherit;" parent="DCnfKMexbWaP9B7KPEEQ-99" vertex="1">
          <mxGeometry y="26" width="160" height="34" as="geometry" />
        </mxCell>
        <mxCell id="DCnfKMexbWaP9B7KPEEQ-101" value="+Sail(): void&lt;div style=&quot;border-color: var(--border-color);&quot;&gt;+Navigate(): void&lt;/div&gt;" style="text;strokeColor=none;fillColor=none;align=left;verticalAlign=top;spacingLeft=4;spacingRight=4;overflow=hidden;rotatable=0;points=[[0,0.5],[1,0.5]];portConstraint=eastwest;whiteSpace=wrap;html=1;" parent="DCnfKMexbWaP9B7KPEEQ-99" vertex="1">
          <mxGeometry y="60" width="160" height="50" as="geometry" />
        </mxCell>
        <mxCell id="DCnfKMexbWaP9B7KPEEQ-102" value="GalleonCrew" style="swimlane;fontStyle=1;align=center;verticalAlign=top;childLayout=stackLayout;horizontal=1;startSize=26;horizontalStack=0;resizeParent=1;resizeParentMax=0;resizeLast=0;collapsible=1;marginBottom=0;whiteSpace=wrap;html=1;" parent="1" vertex="1">
          <mxGeometry x="440" y="540" width="180" height="110" as="geometry" />
        </mxCell>
        <mxCell id="DCnfKMexbWaP9B7KPEEQ-103" value="" style="line;strokeWidth=1;fillColor=none;align=left;verticalAlign=middle;spacingTop=-1;spacingLeft=3;spacingRight=3;rotatable=0;labelPosition=right;points=[];portConstraint=eastwest;strokeColor=inherit;" parent="DCnfKMexbWaP9B7KPEEQ-102" vertex="1">
          <mxGeometry y="26" width="180" height="34" as="geometry" />
        </mxCell>
        <mxCell id="DCnfKMexbWaP9B7KPEEQ-104" value="+AssignRole(): void&lt;div style=&quot;border-color: var(--border-color);&quot;&gt;+AddCrewMember(): void&lt;/div&gt;&lt;div style=&quot;border-color: var(--border-color);&quot;&gt;+RemoveCrewMember(): void&lt;/div&gt;" style="text;strokeColor=none;fillColor=none;align=left;verticalAlign=top;spacingLeft=4;spacingRight=4;overflow=hidden;rotatable=0;points=[[0,0.5],[1,0.5]];portConstraint=eastwest;whiteSpace=wrap;html=1;" parent="DCnfKMexbWaP9B7KPEEQ-102" vertex="1">
          <mxGeometry y="60" width="180" height="50" as="geometry" />
        </mxCell>
        <mxCell id="DCnfKMexbWaP9B7KPEEQ-105" value="GalleonWeapon" style="swimlane;fontStyle=1;align=center;verticalAlign=top;childLayout=stackLayout;horizontal=1;startSize=26;horizontalStack=0;resizeParent=1;resizeParentMax=0;resizeLast=0;collapsible=1;marginBottom=0;whiteSpace=wrap;html=1;" parent="1" vertex="1">
          <mxGeometry x="250" y="540" width="160" height="110" as="geometry" />
        </mxCell>
        <mxCell id="DCnfKMexbWaP9B7KPEEQ-106" value="" style="line;strokeWidth=1;fillColor=none;align=left;verticalAlign=middle;spacingTop=-1;spacingLeft=3;spacingRight=3;rotatable=0;labelPosition=right;points=[];portConstraint=eastwest;strokeColor=inherit;" parent="DCnfKMexbWaP9B7KPEEQ-105" vertex="1">
          <mxGeometry y="26" width="160" height="34" as="geometry" />
        </mxCell>
        <mxCell id="DCnfKMexbWaP9B7KPEEQ-107" value="+Fire(): void&lt;div style=&quot;border-color: var(--border-color);&quot;&gt;+Reload(): void&lt;/div&gt;" style="text;strokeColor=none;fillColor=none;align=left;verticalAlign=top;spacingLeft=4;spacingRight=4;overflow=hidden;rotatable=0;points=[[0,0.5],[1,0.5]];portConstraint=eastwest;whiteSpace=wrap;html=1;" parent="DCnfKMexbWaP9B7KPEEQ-105" vertex="1">
          <mxGeometry y="60" width="160" height="50" as="geometry" />
        </mxCell>
        <mxCell id="DCnfKMexbWaP9B7KPEEQ-108" value="GalleonSupplies" style="swimlane;fontStyle=1;align=center;verticalAlign=top;childLayout=stackLayout;horizontal=1;startSize=26;horizontalStack=0;resizeParent=1;resizeParentMax=0;resizeLast=0;collapsible=1;marginBottom=0;whiteSpace=wrap;html=1;" parent="1" vertex="1">
          <mxGeometry x="30" y="540" width="160" height="110" as="geometry" />
        </mxCell>
        <mxCell id="DCnfKMexbWaP9B7KPEEQ-109" value="" style="line;strokeWidth=1;fillColor=none;align=left;verticalAlign=middle;spacingTop=-1;spacingLeft=3;spacingRight=3;rotatable=0;labelPosition=right;points=[];portConstraint=eastwest;strokeColor=inherit;" parent="DCnfKMexbWaP9B7KPEEQ-108" vertex="1">
          <mxGeometry y="26" width="160" height="34" as="geometry" />
        </mxCell>
        <mxCell id="DCnfKMexbWaP9B7KPEEQ-110" value="+ConsumeSupply(): void&lt;div style=&quot;border-color: var(--border-color);&quot;&gt;+AddSupply(): void&lt;/div&gt;&lt;div style=&quot;border-color: var(--border-color);&quot;&gt;+CheckSupplyLevel(): int&lt;/div&gt;" style="text;strokeColor=none;fillColor=none;align=left;verticalAlign=top;spacingLeft=4;spacingRight=4;overflow=hidden;rotatable=0;points=[[0,0.5],[1,0.5]];portConstraint=eastwest;whiteSpace=wrap;html=1;" parent="DCnfKMexbWaP9B7KPEEQ-108" vertex="1">
          <mxGeometry y="60" width="160" height="50" as="geometry" />
        </mxCell>
        <mxCell id="DCnfKMexbWaP9B7KPEEQ-111" value="" style="endArrow=none;html=1;rounded=0;entryX=0.5;entryY=0;entryDx=0;entryDy=0;dashed=1;" parent="1" target="DCnfKMexbWaP9B7KPEEQ-33" edge="1">
          <mxGeometry width="50" height="50" relative="1" as="geometry">
            <mxPoint x="1000" y="90" as="sourcePoint" />
            <mxPoint x="570" y="350" as="targetPoint" />
          </mxGeometry>
        </mxCell>
        <mxCell id="DCnfKMexbWaP9B7KPEEQ-112" value="" style="endArrow=none;html=1;rounded=0;dashed=1;" parent="1" edge="1">
          <mxGeometry width="50" height="50" relative="1" as="geometry">
            <mxPoint x="100" y="90" as="sourcePoint" />
            <mxPoint x="1000" y="90" as="targetPoint" />
          </mxGeometry>
        </mxCell>
        <mxCell id="DCnfKMexbWaP9B7KPEEQ-113" value="" style="endArrow=open;html=1;rounded=0;entryX=0.5;entryY=0;entryDx=0;entryDy=0;endFill=0;dashed=1;" parent="1" target="DCnfKMexbWaP9B7KPEEQ-78" edge="1">
          <mxGeometry width="50" height="50" relative="1" as="geometry">
            <mxPoint x="530" y="90" as="sourcePoint" />
            <mxPoint x="570" y="350" as="targetPoint" />
          </mxGeometry>
        </mxCell>
        <mxCell id="DCnfKMexbWaP9B7KPEEQ-114" value="" style="endArrow=open;html=1;rounded=0;entryX=0.5;entryY=0;entryDx=0;entryDy=0;dashed=1;endFill=0;" parent="1" edge="1">
          <mxGeometry width="50" height="50" relative="1" as="geometry">
            <mxPoint x="734.38" y="90" as="sourcePoint" />
            <mxPoint x="734.38" y="170" as="targetPoint" />
          </mxGeometry>
        </mxCell>
        <mxCell id="DCnfKMexbWaP9B7KPEEQ-115" value="" style="endArrow=open;html=1;rounded=0;entryX=0.5;entryY=0;entryDx=0;entryDy=0;dashed=1;endFill=0;" parent="1" edge="1">
          <mxGeometry width="50" height="50" relative="1" as="geometry">
            <mxPoint x="329.38" y="90" as="sourcePoint" />
            <mxPoint x="329.38" y="170" as="targetPoint" />
          </mxGeometry>
        </mxCell>
        <mxCell id="DCnfKMexbWaP9B7KPEEQ-116" value="" style="endArrow=open;html=1;rounded=0;entryX=0.5;entryY=0;entryDx=0;entryDy=0;endFill=0;dashed=1;" parent="1" edge="1">
          <mxGeometry width="50" height="50" relative="1" as="geometry">
            <mxPoint x="99.38" y="90" as="sourcePoint" />
            <mxPoint x="99.38" y="170" as="targetPoint" />
          </mxGeometry>
        </mxCell>
        <mxCell id="DCnfKMexbWaP9B7KPEEQ-117" value="" style="endArrow=none;html=1;rounded=0;entryX=0.523;entryY=1;entryDx=0;entryDy=0;entryPerimeter=0;dashed=1;" parent="1" target="DCnfKMexbWaP9B7KPEEQ-39" edge="1">
          <mxGeometry width="50" height="50" relative="1" as="geometry">
            <mxPoint x="1005" y="720" as="sourcePoint" />
            <mxPoint x="570" y="640" as="targetPoint" />
          </mxGeometry>
        </mxCell>
        <mxCell id="DCnfKMexbWaP9B7KPEEQ-119" value="" style="endArrow=none;html=1;rounded=0;dashed=1;" parent="1" edge="1">
          <mxGeometry width="50" height="50" relative="1" as="geometry">
            <mxPoint x="100" y="720" as="sourcePoint" />
            <mxPoint x="1005" y="720" as="targetPoint" />
          </mxGeometry>
        </mxCell>
        <mxCell id="DCnfKMexbWaP9B7KPEEQ-120" value="" style="endArrow=open;html=1;rounded=0;endFill=0;dashed=1;" parent="1" edge="1">
          <mxGeometry width="50" height="50" relative="1" as="geometry">
            <mxPoint x="100" y="720" as="sourcePoint" />
            <mxPoint x="100" y="650" as="targetPoint" />
          </mxGeometry>
        </mxCell>
        <mxCell id="DCnfKMexbWaP9B7KPEEQ-121" value="" style="endArrow=open;html=1;rounded=0;endFill=0;dashed=1;" parent="1" edge="1">
          <mxGeometry width="50" height="50" relative="1" as="geometry">
            <mxPoint x="329.5" y="720" as="sourcePoint" />
            <mxPoint x="329.5" y="650" as="targetPoint" />
          </mxGeometry>
        </mxCell>
        <mxCell id="DCnfKMexbWaP9B7KPEEQ-122" value="" style="endArrow=open;html=1;rounded=0;endFill=0;dashed=1;" parent="1" edge="1">
          <mxGeometry width="50" height="50" relative="1" as="geometry">
            <mxPoint x="529.5" y="720" as="sourcePoint" />
            <mxPoint x="529.5" y="650" as="targetPoint" />
          </mxGeometry>
        </mxCell>
        <mxCell id="DCnfKMexbWaP9B7KPEEQ-123" value="" style="endArrow=open;html=1;rounded=0;endFill=0;dashed=1;" parent="1" edge="1">
          <mxGeometry width="50" height="50" relative="1" as="geometry">
            <mxPoint x="734.5" y="720" as="sourcePoint" />
            <mxPoint x="734.5" y="650" as="targetPoint" />
          </mxGeometry>
        </mxCell>
        <mxCell id="DCnfKMexbWaP9B7KPEEQ-124" value="" style="endArrow=block;html=1;rounded=0;entryX=0.5;entryY=0;entryDx=0;entryDy=0;endFill=0;dashed=1;" parent="1" target="DCnfKMexbWaP9B7KPEEQ-91" edge="1">
          <mxGeometry width="50" height="50" relative="1" as="geometry">
            <mxPoint x="734.29" y="280" as="sourcePoint" />
            <mxPoint x="734.29" y="340" as="targetPoint" />
          </mxGeometry>
        </mxCell>
        <mxCell id="DCnfKMexbWaP9B7KPEEQ-125" value="" style="endArrow=block;html=1;rounded=0;endFill=0;dashed=1;" parent="1" edge="1">
          <mxGeometry width="50" height="50" relative="1" as="geometry">
            <mxPoint x="529.29" y="280" as="sourcePoint" />
            <mxPoint x="529" y="370" as="targetPoint" />
          </mxGeometry>
        </mxCell>
        <mxCell id="DCnfKMexbWaP9B7KPEEQ-126" value="" style="endArrow=block;html=1;rounded=0;entryX=0.5;entryY=0;entryDx=0;entryDy=0;endFill=0;dashed=1;" parent="1" edge="1">
          <mxGeometry width="50" height="50" relative="1" as="geometry">
            <mxPoint x="329.29" y="280" as="sourcePoint" />
            <mxPoint x="330" y="375" as="targetPoint" />
          </mxGeometry>
        </mxCell>
        <mxCell id="DCnfKMexbWaP9B7KPEEQ-127" value="" style="endArrow=block;html=1;rounded=0;endFill=0;dashed=1;" parent="1" edge="1">
          <mxGeometry width="50" height="50" relative="1" as="geometry">
            <mxPoint x="99.29000000000002" y="280" as="sourcePoint" />
            <mxPoint x="100" y="370" as="targetPoint" />
          </mxGeometry>
        </mxCell>
        <mxCell id="DCnfKMexbWaP9B7KPEEQ-128" value="" style="endArrow=block;html=1;rounded=0;exitX=0.5;exitY=0;exitDx=0;exitDy=0;dashed=1;endFill=0;" parent="1" edge="1">
          <mxGeometry width="50" height="50" relative="1" as="geometry">
            <mxPoint x="730" y="540" as="sourcePoint" />
            <mxPoint x="730" y="454" as="targetPoint" />
          </mxGeometry>
        </mxCell>
        <mxCell id="DCnfKMexbWaP9B7KPEEQ-129" value="" style="endArrow=block;html=1;rounded=0;exitX=0.5;exitY=0;exitDx=0;exitDy=0;dashed=1;endFill=0;" parent="1" edge="1">
          <mxGeometry width="50" height="50" relative="1" as="geometry">
            <mxPoint x="529.62" y="540" as="sourcePoint" />
            <mxPoint x="530" y="461" as="targetPoint" />
          </mxGeometry>
        </mxCell>
        <mxCell id="DCnfKMexbWaP9B7KPEEQ-131" value="" style="endArrow=block;html=1;rounded=0;exitX=0.5;exitY=0;exitDx=0;exitDy=0;entryX=0.554;entryY=1.005;entryDx=0;entryDy=0;entryPerimeter=0;dashed=1;endFill=0;" parent="1" source="DCnfKMexbWaP9B7KPEEQ-105" target="DCnfKMexbWaP9B7KPEEQ-96" edge="1">
          <mxGeometry width="50" height="50" relative="1" as="geometry">
            <mxPoint x="390" y="460" as="sourcePoint" />
            <mxPoint x="440" y="410" as="targetPoint" />
          </mxGeometry>
        </mxCell>
        <mxCell id="DCnfKMexbWaP9B7KPEEQ-132" value="" style="endArrow=block;html=1;rounded=0;exitX=0.5;exitY=0;exitDx=0;exitDy=0;dashed=1;endFill=0;" parent="1" edge="1">
          <mxGeometry width="50" height="50" relative="1" as="geometry">
            <mxPoint x="99.29000000000002" y="540" as="sourcePoint" />
            <mxPoint x="99.67000000000002" y="461" as="targetPoint" />
          </mxGeometry>
        </mxCell>
        <mxCell id="EtBIHJLA7ETOR2UBEaLd-16" value="&amp;lt;&amp;lt;interface&amp;gt;&amp;gt;&lt;div&gt;IPirateComponent&lt;/div&gt;" style="swimlane;fontStyle=0;childLayout=stackLayout;horizontal=1;startSize=30;fillColor=none;horizontalStack=0;resizeParent=1;resizeParentMax=0;resizeLast=0;collapsible=1;marginBottom=0;whiteSpace=wrap;html=1;" vertex="1" parent="1">
          <mxGeometry x="-830" y="-1560" width="180" height="56" as="geometry" />
        </mxCell>
        <mxCell id="EtBIHJLA7ETOR2UBEaLd-17" value="+ShowInfo(): string" style="text;strokeColor=none;fillColor=none;align=left;verticalAlign=top;spacingLeft=4;spacingRight=4;overflow=hidden;rotatable=0;points=[[0,0.5],[1,0.5]];portConstraint=eastwest;whiteSpace=wrap;html=1;" vertex="1" parent="EtBIHJLA7ETOR2UBEaLd-16">
          <mxGeometry y="30" width="180" height="26" as="geometry" />
        </mxCell>
        <mxCell id="EtBIHJLA7ETOR2UBEaLd-18" value="PirateLeaf" style="swimlane;fontStyle=1;align=center;verticalAlign=top;childLayout=stackLayout;horizontal=1;startSize=26;horizontalStack=0;resizeParent=1;resizeParentMax=0;resizeLast=0;collapsible=1;marginBottom=0;whiteSpace=wrap;html=1;" vertex="1" parent="1">
          <mxGeometry x="-990" y="-1410" width="220" height="178" as="geometry" />
        </mxCell>
        <mxCell id="EtBIHJLA7ETOR2UBEaLd-19" value="- ID: Guid&lt;div&gt;-Name: string&lt;/div&gt;&lt;div&gt;- money: int&lt;/div&gt;&lt;div&gt;-RankName: string&lt;/div&gt;" style="text;strokeColor=none;fillColor=none;align=left;verticalAlign=top;spacingLeft=4;spacingRight=4;overflow=hidden;rotatable=0;points=[[0,0.5],[1,0.5]];portConstraint=eastwest;whiteSpace=wrap;html=1;" vertex="1" parent="EtBIHJLA7ETOR2UBEaLd-18">
          <mxGeometry y="26" width="220" height="74" as="geometry" />
        </mxCell>
        <mxCell id="EtBIHJLA7ETOR2UBEaLd-20" value="" style="line;strokeWidth=1;fillColor=none;align=left;verticalAlign=middle;spacingTop=-1;spacingLeft=3;spacingRight=3;rotatable=0;labelPosition=right;points=[];portConstraint=eastwest;strokeColor=inherit;" vertex="1" parent="EtBIHJLA7ETOR2UBEaLd-18">
          <mxGeometry y="100" width="220" height="8" as="geometry" />
        </mxCell>
        <mxCell id="EtBIHJLA7ETOR2UBEaLd-21" value="&lt;div&gt;&lt;div&gt;+PirateLeaf(name: string, rank: Rank, money: int)&lt;/div&gt;&lt;/div&gt;&lt;div&gt;+ShowInfo(): string&lt;/div&gt;" style="text;strokeColor=none;fillColor=none;align=left;verticalAlign=top;spacingLeft=4;spacingRight=4;overflow=hidden;rotatable=0;points=[[0,0.5],[1,0.5]];portConstraint=eastwest;whiteSpace=wrap;html=1;" vertex="1" parent="EtBIHJLA7ETOR2UBEaLd-18">
          <mxGeometry y="108" width="220" height="70" as="geometry" />
        </mxCell>
        <mxCell id="EtBIHJLA7ETOR2UBEaLd-22" value="PirateBranch" style="swimlane;fontStyle=1;align=center;verticalAlign=top;childLayout=stackLayout;horizontal=1;startSize=26;horizontalStack=0;resizeParent=1;resizeParentMax=0;resizeLast=0;collapsible=1;marginBottom=0;whiteSpace=wrap;html=1;" vertex="1" parent="1">
          <mxGeometry x="-650" y="-1410" width="220" height="190" as="geometry" />
        </mxCell>
        <mxCell id="EtBIHJLA7ETOR2UBEaLd-23" value="- children: List&amp;lt;IPirateComponent&amp;gt;" style="text;strokeColor=none;fillColor=none;align=left;verticalAlign=top;spacingLeft=4;spacingRight=4;overflow=hidden;rotatable=0;points=[[0,0.5],[1,0.5]];portConstraint=eastwest;whiteSpace=wrap;html=1;" vertex="1" parent="EtBIHJLA7ETOR2UBEaLd-22">
          <mxGeometry y="26" width="220" height="34" as="geometry" />
        </mxCell>
        <mxCell id="EtBIHJLA7ETOR2UBEaLd-24" value="" style="line;strokeWidth=1;fillColor=none;align=left;verticalAlign=middle;spacingTop=-1;spacingLeft=3;spacingRight=3;rotatable=0;labelPosition=right;points=[];portConstraint=eastwest;strokeColor=inherit;" vertex="1" parent="EtBIHJLA7ETOR2UBEaLd-22">
          <mxGeometry y="60" width="220" height="8" as="geometry" />
        </mxCell>
        <mxCell id="EtBIHJLA7ETOR2UBEaLd-25" value="&lt;div&gt;&lt;div&gt;+AddComponent(component: IPirateComponent): void&lt;/div&gt;&lt;/div&gt;&lt;div&gt;+Remove&lt;span style=&quot;background-color: initial;&quot;&gt;Component(component: IPirateComponent): void&lt;/span&gt;&lt;/div&gt;&lt;div&gt;&lt;span style=&quot;background-color: initial;&quot;&gt;+ GetComponents(): List&amp;lt;IPirateComponent&amp;gt;&lt;/span&gt;&lt;/div&gt;&lt;div&gt;&lt;span style=&quot;background-color: initial;&quot;&gt;+ShowInfo(): string&lt;/span&gt;&lt;/div&gt;&lt;div&gt;&lt;span style=&quot;background-color: initial;&quot;&gt;&lt;br&gt;&lt;/span&gt;&lt;/div&gt;" style="text;strokeColor=none;fillColor=none;align=left;verticalAlign=top;spacingLeft=4;spacingRight=4;overflow=hidden;rotatable=0;points=[[0,0.5],[1,0.5]];portConstraint=eastwest;whiteSpace=wrap;html=1;" vertex="1" parent="EtBIHJLA7ETOR2UBEaLd-22">
          <mxGeometry y="68" width="220" height="122" as="geometry" />
        </mxCell>
        <mxCell id="EtBIHJLA7ETOR2UBEaLd-26" value="" style="endArrow=none;html=1;rounded=0;dashed=1;" edge="1" parent="1">
          <mxGeometry width="50" height="50" relative="1" as="geometry">
            <mxPoint x="-890" y="-1460" as="sourcePoint" />
            <mxPoint x="-530" y="-1460" as="targetPoint" />
          </mxGeometry>
        </mxCell>
        <mxCell id="EtBIHJLA7ETOR2UBEaLd-27" value="" style="endArrow=none;html=1;rounded=0;exitX=0.46;exitY=-0.01;exitDx=0;exitDy=0;exitPerimeter=0;dashed=1;" edge="1" parent="1" source="EtBIHJLA7ETOR2UBEaLd-18">
          <mxGeometry width="50" height="50" relative="1" as="geometry">
            <mxPoint x="-780" y="-1450" as="sourcePoint" />
            <mxPoint x="-889" y="-1460" as="targetPoint" />
          </mxGeometry>
        </mxCell>
        <mxCell id="EtBIHJLA7ETOR2UBEaLd-28" value="" style="endArrow=none;html=1;rounded=0;exitX=0.46;exitY=-0.01;exitDx=0;exitDy=0;exitPerimeter=0;dashed=1;" edge="1" parent="1">
          <mxGeometry width="50" height="50" relative="1" as="geometry">
            <mxPoint x="-530" y="-1410" as="sourcePoint" />
            <mxPoint x="-530" y="-1458" as="targetPoint" />
          </mxGeometry>
        </mxCell>
        <mxCell id="EtBIHJLA7ETOR2UBEaLd-29" value="" style="endArrow=block;html=1;rounded=0;entryX=0.487;entryY=1.015;entryDx=0;entryDy=0;entryPerimeter=0;endFill=0;dashed=1;" edge="1" parent="1" target="EtBIHJLA7ETOR2UBEaLd-17">
          <mxGeometry width="50" height="50" relative="1" as="geometry">
            <mxPoint x="-742" y="-1460" as="sourcePoint" />
            <mxPoint x="-730" y="-1500" as="targetPoint" />
          </mxGeometry>
        </mxCell>
        <mxCell id="EtBIHJLA7ETOR2UBEaLd-30" value="" style="endArrow=diamond;startArrow=open;html=1;rounded=0;exitX=1;exitY=0.5;exitDx=0;exitDy=0;entryX=0.864;entryY=0;entryDx=0;entryDy=0;entryPerimeter=0;endFill=0;startFill=0;" edge="1" parent="1" source="EtBIHJLA7ETOR2UBEaLd-17" target="EtBIHJLA7ETOR2UBEaLd-22">
          <mxGeometry width="50" height="50" relative="1" as="geometry">
            <mxPoint x="-500" y="-1480" as="sourcePoint" />
            <mxPoint x="-450" y="-1530" as="targetPoint" />
            <Array as="points">
              <mxPoint x="-458" y="-1517" />
            </Array>
          </mxGeometry>
        </mxCell>
        <mxCell id="EtBIHJLA7ETOR2UBEaLd-31" value="Composite" style="text;html=1;align=center;verticalAlign=middle;resizable=0;points=[];autosize=1;strokeColor=none;fillColor=none;" vertex="1" parent="1">
          <mxGeometry x="-490" y="-1560" width="80" height="30" as="geometry" />
        </mxCell>
        <mxCell id="EtBIHJLA7ETOR2UBEaLd-32" value="&lt;i&gt;Bonus&lt;/i&gt;" style="swimlane;fontStyle=0;childLayout=stackLayout;horizontal=1;startSize=30;fillColor=none;horizontalStack=0;resizeParent=1;resizeParentMax=0;resizeLast=0;collapsible=1;marginBottom=0;whiteSpace=wrap;html=1;" vertex="1" parent="1">
          <mxGeometry x="20" y="-1586" width="180" height="80" as="geometry" />
        </mxCell>
        <mxCell id="EtBIHJLA7ETOR2UBEaLd-33" value="+&amp;lt;&amp;lt;abstract&amp;gt;&amp;gt; CalculateBonus(): void" style="text;strokeColor=none;fillColor=none;align=left;verticalAlign=top;spacingLeft=4;spacingRight=4;overflow=hidden;rotatable=0;points=[[0,0.5],[1,0.5]];portConstraint=eastwest;whiteSpace=wrap;html=1;" vertex="1" parent="EtBIHJLA7ETOR2UBEaLd-32">
          <mxGeometry y="30" width="180" height="50" as="geometry" />
        </mxCell>
        <mxCell id="EtBIHJLA7ETOR2UBEaLd-34" value="PirateLeaf" style="swimlane;fontStyle=1;align=center;verticalAlign=top;childLayout=stackLayout;horizontal=1;startSize=26;horizontalStack=0;resizeParent=1;resizeParentMax=0;resizeLast=0;collapsible=1;marginBottom=0;whiteSpace=wrap;html=1;" vertex="1" parent="1">
          <mxGeometry x="-170" y="-1410" width="220" height="70" as="geometry" />
        </mxCell>
        <mxCell id="EtBIHJLA7ETOR2UBEaLd-36" value="" style="line;strokeWidth=1;fillColor=none;align=left;verticalAlign=middle;spacingTop=-1;spacingLeft=3;spacingRight=3;rotatable=0;labelPosition=right;points=[];portConstraint=eastwest;strokeColor=inherit;" vertex="1" parent="EtBIHJLA7ETOR2UBEaLd-34">
          <mxGeometry y="26" width="220" height="8" as="geometry" />
        </mxCell>
        <mxCell id="EtBIHJLA7ETOR2UBEaLd-37" value="&lt;div&gt;&lt;div&gt;+CalculateBonus(): void&lt;/div&gt;&lt;/div&gt;" style="text;strokeColor=none;fillColor=none;align=left;verticalAlign=top;spacingLeft=4;spacingRight=4;overflow=hidden;rotatable=0;points=[[0,0.5],[1,0.5]];portConstraint=eastwest;whiteSpace=wrap;html=1;" vertex="1" parent="EtBIHJLA7ETOR2UBEaLd-34">
          <mxGeometry y="34" width="220" height="36" as="geometry" />
        </mxCell>
        <mxCell id="EtBIHJLA7ETOR2UBEaLd-41" value="&lt;i style=&quot;font-weight: normal;&quot;&gt;BonusDecorator&lt;/i&gt;" style="swimlane;fontStyle=1;align=center;verticalAlign=top;childLayout=stackLayout;horizontal=1;startSize=26;horizontalStack=0;resizeParent=1;resizeParentMax=0;resizeLast=0;collapsible=1;marginBottom=0;whiteSpace=wrap;html=1;" vertex="1" parent="1">
          <mxGeometry x="190" y="-1410" width="220" height="148" as="geometry" />
        </mxCell>
        <mxCell id="EtBIHJLA7ETOR2UBEaLd-42" value="# _bonus: Bonus" style="text;strokeColor=none;fillColor=none;align=left;verticalAlign=top;spacingLeft=4;spacingRight=4;overflow=hidden;rotatable=0;points=[[0,0.5],[1,0.5]];portConstraint=eastwest;whiteSpace=wrap;html=1;" vertex="1" parent="EtBIHJLA7ETOR2UBEaLd-41">
          <mxGeometry y="26" width="220" height="44" as="geometry" />
        </mxCell>
        <mxCell id="EtBIHJLA7ETOR2UBEaLd-43" value="" style="line;strokeWidth=1;fillColor=none;align=left;verticalAlign=middle;spacingTop=-1;spacingLeft=3;spacingRight=3;rotatable=0;labelPosition=right;points=[];portConstraint=eastwest;strokeColor=inherit;" vertex="1" parent="EtBIHJLA7ETOR2UBEaLd-41">
          <mxGeometry y="70" width="220" height="8" as="geometry" />
        </mxCell>
        <mxCell id="EtBIHJLA7ETOR2UBEaLd-44" value="&lt;div&gt;&lt;div&gt;+BonusDecoretor()&lt;/div&gt;&lt;/div&gt;&lt;div&gt;+BonusDecorator(bonus: Bonus)&lt;/div&gt;&lt;div&gt;+CalculateBonus(): void&lt;br&gt;&lt;/div&gt;" style="text;strokeColor=none;fillColor=none;align=left;verticalAlign=top;spacingLeft=4;spacingRight=4;overflow=hidden;rotatable=0;points=[[0,0.5],[1,0.5]];portConstraint=eastwest;whiteSpace=wrap;html=1;" vertex="1" parent="EtBIHJLA7ETOR2UBEaLd-41">
          <mxGeometry y="78" width="220" height="70" as="geometry" />
        </mxCell>
        <mxCell id="EtBIHJLA7ETOR2UBEaLd-45" value="" style="endArrow=none;html=1;rounded=0;dashed=1;" edge="1" parent="1">
          <mxGeometry width="50" height="50" relative="1" as="geometry">
            <mxPoint x="-50" y="-1462" as="sourcePoint" />
            <mxPoint x="310" y="-1462" as="targetPoint" />
          </mxGeometry>
        </mxCell>
        <mxCell id="EtBIHJLA7ETOR2UBEaLd-46" value="" style="endArrow=none;html=1;rounded=0;exitX=0.46;exitY=-0.01;exitDx=0;exitDy=0;exitPerimeter=0;dashed=1;" edge="1" parent="1">
          <mxGeometry width="50" height="50" relative="1" as="geometry">
            <mxPoint x="-49" y="-1414" as="sourcePoint" />
            <mxPoint x="-49" y="-1462" as="targetPoint" />
          </mxGeometry>
        </mxCell>
        <mxCell id="EtBIHJLA7ETOR2UBEaLd-47" value="" style="endArrow=none;html=1;rounded=0;exitX=0.46;exitY=-0.01;exitDx=0;exitDy=0;exitPerimeter=0;dashed=1;" edge="1" parent="1">
          <mxGeometry width="50" height="50" relative="1" as="geometry">
            <mxPoint x="310" y="-1412" as="sourcePoint" />
            <mxPoint x="310" y="-1460" as="targetPoint" />
          </mxGeometry>
        </mxCell>
        <mxCell id="EtBIHJLA7ETOR2UBEaLd-48" value="" style="endArrow=block;html=1;rounded=0;entryX=0.487;entryY=1.015;entryDx=0;entryDy=0;entryPerimeter=0;endFill=0;dashed=1;" edge="1" parent="1">
          <mxGeometry width="50" height="50" relative="1" as="geometry">
            <mxPoint x="98" y="-1462" as="sourcePoint" />
            <mxPoint x="98" y="-1506" as="targetPoint" />
          </mxGeometry>
        </mxCell>
        <mxCell id="EtBIHJLA7ETOR2UBEaLd-49" value="" style="endArrow=diamond;startArrow=open;html=1;rounded=0;exitX=1;exitY=0.5;exitDx=0;exitDy=0;entryX=0.864;entryY=0;entryDx=0;entryDy=0;entryPerimeter=0;endFill=0;startFill=0;" edge="1" parent="1">
          <mxGeometry width="50" height="50" relative="1" as="geometry">
            <mxPoint x="200" y="-1517" as="sourcePoint" />
            <mxPoint x="390" y="-1410" as="targetPoint" />
            <Array as="points">
              <mxPoint x="392" y="-1517" />
            </Array>
          </mxGeometry>
        </mxCell>
        <mxCell id="EtBIHJLA7ETOR2UBEaLd-50" value="Decorator" style="text;html=1;align=center;verticalAlign=middle;resizable=0;points=[];autosize=1;strokeColor=none;fillColor=none;" vertex="1" parent="1">
          <mxGeometry x="300" y="-1612" width="80" height="30" as="geometry" />
        </mxCell>
        <mxCell id="EtBIHJLA7ETOR2UBEaLd-51" value="ImproveBonus" style="swimlane;fontStyle=1;align=center;verticalAlign=top;childLayout=stackLayout;horizontal=1;startSize=26;horizontalStack=0;resizeParent=1;resizeParentMax=0;resizeLast=0;collapsible=1;marginBottom=0;whiteSpace=wrap;html=1;" vertex="1" parent="1">
          <mxGeometry x="190" y="-1220" width="220" height="100" as="geometry" />
        </mxCell>
        <mxCell id="EtBIHJLA7ETOR2UBEaLd-53" value="" style="line;strokeWidth=1;fillColor=none;align=left;verticalAlign=middle;spacingTop=-1;spacingLeft=3;spacingRight=3;rotatable=0;labelPosition=right;points=[];portConstraint=eastwest;strokeColor=inherit;" vertex="1" parent="EtBIHJLA7ETOR2UBEaLd-51">
          <mxGeometry y="26" width="220" height="8" as="geometry" />
        </mxCell>
        <mxCell id="EtBIHJLA7ETOR2UBEaLd-54" value="&lt;div&gt;&lt;div&gt;+ImproveBonus()&lt;/div&gt;&lt;/div&gt;&lt;div&gt;+ImproveBonus(bonus: Bonus)&lt;/div&gt;&lt;div&gt;+CalculateBonus(): void&lt;br&gt;&lt;/div&gt;&lt;div&gt;+ImproveBoat(): void&lt;/div&gt;" style="text;strokeColor=none;fillColor=none;align=left;verticalAlign=top;spacingLeft=4;spacingRight=4;overflow=hidden;rotatable=0;points=[[0,0.5],[1,0.5]];portConstraint=eastwest;whiteSpace=wrap;html=1;" vertex="1" parent="EtBIHJLA7ETOR2UBEaLd-51">
          <mxGeometry y="34" width="220" height="66" as="geometry" />
        </mxCell>
        <mxCell id="EtBIHJLA7ETOR2UBEaLd-55" value="" style="endArrow=block;html=1;rounded=0;exitX=0.467;exitY=-0.025;exitDx=0;exitDy=0;exitPerimeter=0;entryX=0.467;entryY=0.998;entryDx=0;entryDy=0;entryPerimeter=0;endFill=0;" edge="1" parent="1" source="EtBIHJLA7ETOR2UBEaLd-51" target="EtBIHJLA7ETOR2UBEaLd-44">
          <mxGeometry width="50" height="50" relative="1" as="geometry">
            <mxPoint x="200" y="-1280" as="sourcePoint" />
            <mxPoint x="250" y="-1330" as="targetPoint" />
          </mxGeometry>
        </mxCell>
        <mxCell id="EtBIHJLA7ETOR2UBEaLd-56" value="GameArea" style="swimlane;fontStyle=1;align=center;verticalAlign=top;childLayout=stackLayout;horizontal=1;startSize=26;horizontalStack=0;resizeParent=1;resizeParentMax=0;resizeLast=0;collapsible=1;marginBottom=0;whiteSpace=wrap;html=1;" vertex="1" parent="1">
          <mxGeometry x="650" y="-1380" width="220" height="148" as="geometry" />
        </mxCell>
        <mxCell id="EtBIHJLA7ETOR2UBEaLd-57" value="+Width: int&lt;div&gt;+Height: int&lt;/div&gt;" style="text;strokeColor=none;fillColor=none;align=left;verticalAlign=top;spacingLeft=4;spacingRight=4;overflow=hidden;rotatable=0;points=[[0,0.5],[1,0.5]];portConstraint=eastwest;whiteSpace=wrap;html=1;" vertex="1" parent="EtBIHJLA7ETOR2UBEaLd-56">
          <mxGeometry y="26" width="220" height="44" as="geometry" />
        </mxCell>
        <mxCell id="EtBIHJLA7ETOR2UBEaLd-58" value="" style="line;strokeWidth=1;fillColor=none;align=left;verticalAlign=middle;spacingTop=-1;spacingLeft=3;spacingRight=3;rotatable=0;labelPosition=right;points=[];portConstraint=eastwest;strokeColor=inherit;" vertex="1" parent="EtBIHJLA7ETOR2UBEaLd-56">
          <mxGeometry y="70" width="220" height="8" as="geometry" />
        </mxCell>
        <mxCell id="EtBIHJLA7ETOR2UBEaLd-59" value="&lt;div&gt;&lt;div&gt;+Map(width: int, height: int)&lt;/div&gt;&lt;/div&gt;&lt;div&gt;+IsValidPosition(): bool&lt;/div&gt;&lt;div&gt;+DeleteShip(): viod&lt;/div&gt;" style="text;strokeColor=none;fillColor=none;align=left;verticalAlign=top;spacingLeft=4;spacingRight=4;overflow=hidden;rotatable=0;points=[[0,0.5],[1,0.5]];portConstraint=eastwest;whiteSpace=wrap;html=1;" vertex="1" parent="EtBIHJLA7ETOR2UBEaLd-56">
          <mxGeometry y="78" width="220" height="70" as="geometry" />
        </mxCell>
        <mxCell id="EtBIHJLA7ETOR2UBEaLd-60" value="Ship" style="swimlane;fontStyle=1;align=center;verticalAlign=top;childLayout=stackLayout;horizontal=1;startSize=26;horizontalStack=0;resizeParent=1;resizeParentMax=0;resizeLast=0;collapsible=1;marginBottom=0;whiteSpace=wrap;html=1;" vertex="1" parent="1">
          <mxGeometry x="900" y="-1380" width="220" height="160" as="geometry" />
        </mxCell>
        <mxCell id="EtBIHJLA7ETOR2UBEaLd-61" value="+X: int&lt;div&gt;+Y: int&lt;/div&gt;" style="text;strokeColor=none;fillColor=none;align=left;verticalAlign=top;spacingLeft=4;spacingRight=4;overflow=hidden;rotatable=0;points=[[0,0.5],[1,0.5]];portConstraint=eastwest;whiteSpace=wrap;html=1;" vertex="1" parent="EtBIHJLA7ETOR2UBEaLd-60">
          <mxGeometry y="26" width="220" height="44" as="geometry" />
        </mxCell>
        <mxCell id="EtBIHJLA7ETOR2UBEaLd-62" value="" style="line;strokeWidth=1;fillColor=none;align=left;verticalAlign=middle;spacingTop=-1;spacingLeft=3;spacingRight=3;rotatable=0;labelPosition=right;points=[];portConstraint=eastwest;strokeColor=inherit;" vertex="1" parent="EtBIHJLA7ETOR2UBEaLd-60">
          <mxGeometry y="70" width="220" height="8" as="geometry" />
        </mxCell>
        <mxCell id="EtBIHJLA7ETOR2UBEaLd-63" value="&lt;div&gt;&lt;div&gt;+Ship(x: int, y: int)&lt;/div&gt;&lt;/div&gt;&lt;div&gt;+MoveUp(): void&lt;/div&gt;&lt;div&gt;+MoveDown(): void&lt;/div&gt;&lt;div&gt;+MoveLeft(): void&lt;br&gt;&lt;/div&gt;&lt;div&gt;+MoveRight(): void&lt;br&gt;&lt;/div&gt;&lt;div&gt;&lt;br&gt;&lt;/div&gt;" style="text;strokeColor=none;fillColor=none;align=left;verticalAlign=top;spacingLeft=4;spacingRight=4;overflow=hidden;rotatable=0;points=[[0,0.5],[1,0.5]];portConstraint=eastwest;whiteSpace=wrap;html=1;" vertex="1" parent="EtBIHJLA7ETOR2UBEaLd-60">
          <mxGeometry y="78" width="220" height="82" as="geometry" />
        </mxCell>
        <mxCell id="EtBIHJLA7ETOR2UBEaLd-64" value="ShipMovement" style="swimlane;fontStyle=1;align=center;verticalAlign=top;childLayout=stackLayout;horizontal=1;startSize=26;horizontalStack=0;resizeParent=1;resizeParentMax=0;resizeLast=0;collapsible=1;marginBottom=0;whiteSpace=wrap;html=1;" vertex="1" parent="1">
          <mxGeometry x="770" y="-1610" width="220" height="160" as="geometry" />
        </mxCell>
        <mxCell id="EtBIHJLA7ETOR2UBEaLd-65" value="-_area: GameArea&lt;div&gt;-_ship: Ship&lt;/div&gt;" style="text;strokeColor=none;fillColor=none;align=left;verticalAlign=top;spacingLeft=4;spacingRight=4;overflow=hidden;rotatable=0;points=[[0,0.5],[1,0.5]];portConstraint=eastwest;whiteSpace=wrap;html=1;" vertex="1" parent="EtBIHJLA7ETOR2UBEaLd-64">
          <mxGeometry y="26" width="220" height="44" as="geometry" />
        </mxCell>
        <mxCell id="EtBIHJLA7ETOR2UBEaLd-66" value="" style="line;strokeWidth=1;fillColor=none;align=left;verticalAlign=middle;spacingTop=-1;spacingLeft=3;spacingRight=3;rotatable=0;labelPosition=right;points=[];portConstraint=eastwest;strokeColor=inherit;" vertex="1" parent="EtBIHJLA7ETOR2UBEaLd-64">
          <mxGeometry y="70" width="220" height="8" as="geometry" />
        </mxCell>
        <mxCell id="EtBIHJLA7ETOR2UBEaLd-67" value="&lt;div&gt;&lt;div&gt;+ShipMovement()&lt;/div&gt;&lt;/div&gt;&lt;div&gt;+MoveUp(): void&lt;/div&gt;&lt;div&gt;+MoveDown(): void&lt;/div&gt;&lt;div&gt;+MoveLeft(): void&lt;br&gt;&lt;/div&gt;&lt;div&gt;+MoveRight(): void&lt;br&gt;&lt;/div&gt;&lt;div&gt;&lt;br&gt;&lt;/div&gt;" style="text;strokeColor=none;fillColor=none;align=left;verticalAlign=top;spacingLeft=4;spacingRight=4;overflow=hidden;rotatable=0;points=[[0,0.5],[1,0.5]];portConstraint=eastwest;whiteSpace=wrap;html=1;" vertex="1" parent="EtBIHJLA7ETOR2UBEaLd-64">
          <mxGeometry y="78" width="220" height="82" as="geometry" />
        </mxCell>
        <mxCell id="EtBIHJLA7ETOR2UBEaLd-69" value="" style="endArrow=open;startArrow=diamond;html=1;rounded=0;entryX=0.25;entryY=1.061;entryDx=0;entryDy=0;entryPerimeter=0;exitX=0.323;exitY=0.02;exitDx=0;exitDy=0;exitPerimeter=0;endFill=0;startFill=0;" edge="1" parent="1">
          <mxGeometry width="50" height="50" relative="1" as="geometry">
            <mxPoint x="728.0300000000004" y="-1382.04" as="sourcePoint" />
            <mxPoint x="831.9700000000005" y="-1449.998" as="targetPoint" />
          </mxGeometry>
        </mxCell>
        <mxCell id="EtBIHJLA7ETOR2UBEaLd-70" value="" style="endArrow=open;startArrow=diamond;html=1;rounded=0;exitX=0.323;exitY=0.02;exitDx=0;exitDy=0;exitPerimeter=0;endFill=0;startFill=0;" edge="1" parent="1">
          <mxGeometry width="50" height="50" relative="1" as="geometry">
            <mxPoint x="980.0000000000005" y="-1380" as="sourcePoint" />
            <mxPoint x="920" y="-1450" as="targetPoint" />
          </mxGeometry>
        </mxCell>
        <mxCell id="EtBIHJLA7ETOR2UBEaLd-71" value="Client" style="rounded=0;whiteSpace=wrap;html=1;" vertex="1" parent="1">
          <mxGeometry x="830" y="-1714" width="105" height="44" as="geometry" />
        </mxCell>
        <mxCell id="EtBIHJLA7ETOR2UBEaLd-72" value="" style="endArrow=open;html=1;rounded=0;exitX=0.5;exitY=1;exitDx=0;exitDy=0;entryX=0.5;entryY=0;entryDx=0;entryDy=0;endFill=0;" edge="1" parent="1" source="EtBIHJLA7ETOR2UBEaLd-71" target="EtBIHJLA7ETOR2UBEaLd-64">
          <mxGeometry width="50" height="50" relative="1" as="geometry">
            <mxPoint x="510" y="-1440" as="sourcePoint" />
            <mxPoint x="560" y="-1490" as="targetPoint" />
          </mxGeometry>
        </mxCell>
        <mxCell id="EtBIHJLA7ETOR2UBEaLd-73" value="Client" style="rounded=0;whiteSpace=wrap;html=1;" vertex="1" parent="1">
          <mxGeometry x="60" y="-1690" width="105" height="44" as="geometry" />
        </mxCell>
        <mxCell id="EtBIHJLA7ETOR2UBEaLd-74" value="" style="endArrow=open;html=1;rounded=0;exitX=0.5;exitY=1;exitDx=0;exitDy=0;entryX=0.5;entryY=0;entryDx=0;entryDy=0;endFill=0;" edge="1" parent="1" source="EtBIHJLA7ETOR2UBEaLd-73">
          <mxGeometry width="50" height="50" relative="1" as="geometry">
            <mxPoint x="-260" y="-1416" as="sourcePoint" />
            <mxPoint x="110" y="-1586" as="targetPoint" />
          </mxGeometry>
        </mxCell>
      </root>
    </mxGraphModel>
  </diagram>
</mxfile>
